…
研究所薪資差異
--------------

以106年度的資料來看，哪個職業別念研究所最划算呢 (研究所學歷薪資與大學學歷薪資增加比例最多)?

``` r
X106ed$"比例"<-as.numeric(X106ed$"研究所及以上-薪資")/as.numeric(X106ed$"大學-薪資")
X106test<-arrange(X106ed,desc(比例))#薪資差異比例由大到小排序
X106test<-na.omit(X106test)
X106test<-X106test[,c(-3:-10,-12,-14)]
X106test
```

    ## # A tibble: 80 x 5
    ##     年度 大職業別                      `大學-薪資` `研究所及以上-薪資`~  比例
    ##    <dbl> <chr>                         <chr>       <chr>              <dbl>
    ##  1  2017 礦業及土石採取業-事務支援人員 24815       30000               1.21
    ##  2  2017 專業_科學及技術服務業         29648       35666               1.20
    ##  3  2017 其他服務業-技術員及助理專業人員~ 27929       33500               1.20
    ##  4  2017 專業_科學及技術服務業-事務支援人員~ 27035       32234               1.19
    ##  5  2017 批發及零售業                  27611       32910               1.19
    ##  6  2017 製造業                        28155       33458               1.19
    ##  7  2017 藝術_娛樂及休閒服務業-事務支援人員~ 24970       29657               1.19
    ##  8  2017 工業部門                      28263       33448               1.18
    ##  9  2017 工業及服務業部門              28446       33633               1.18
    ## 10  2017 服務業部門                    28715       33922               1.18
    ## # ... with 70 more rows
…
